{
  "phones": [
    {
      "id": "0",
      "DeviceName": "BLU Studio View",
      "Brand": "BLU",
      "technology": "GSM / HSPA",
      "gprs": "Yes",
      "edge": "Yes",
      "announced": "2018, January",
      "status": "Available. Released 2018, January",
      "dimensions": "151 x 71 x 9 mm (5.94 x 2.80 x 0.35 in)",
      "weight": "159 g (5.61 oz)",
      "sim": "Dual SIM (Micro-SIM/Nano-SIM, dual stand-by)",
      "type": "IPS LCD capacitive touchscreen, 16M colors",
      "size": "5.5 inches, 78.1 cm2 (~72.8% screen-to-body ratio)",
      "resolution": "640 x 1280 pixels, 18:9 ratio (~260 ppi density)",
      "card_slot": "microSD, up to 64 GB",
      "alert_types": "Vibration; MP3, WAV ringtones",
      "loudspeaker_": "Yes",
      "wlan": "Wi-Fi 802.11 b/g/n, hotspot",
      "bluetooth": "4.0, A2DP",
      "gps": "Yes, with A-GPS",
      "radio": "FM radio",
      "usb": "microUSB 2.0",
      "messaging": "SMS(threaded view), MMS, Email, Push Email, IM",
      "browser": "HTML5",
      "features_c": "- MP4/H.264 player\r\n  - MP3/eAAC+/WAV/Flac player\r\n  - Document viewer\r\n  - Photo/video editor",
      "battery_c": "Non-removable Li-Po 2850 mAh battery",
      "stand_by": "Up to 600 h (2G) / Up to 550 h (3G)",
      "talk_time": "Up to 25 h (2G) / Up to 20 h (3G)",
      "colors": "Black, Gold, Rose Gold, Silver",
      "sensors": "Fingerprint (rear-mounted), accelerometer, proximity",
      "cpu": "Quad-core 1.3 GHz Cortex-A7",
      "internal": "8 GB, 1 GB RAM",
      "os": "Android 7.0 (Nougat)",
      "primary_": "8 MP, LED flash",
      "video": "720p@30fps",
      "secondary": "5 MP, LED flash",
      "speed": "HSPA 21.1/5.76 Mbps",
      "chipset": "Mediatek MT6580",
      "features": "Geo-tagging, touch focus, face detection",
      "gpu": "Mali-400MP2",
      "multitouch": "Yes",
      "build": "Front glass, aluminum body",
      "price": "About 100 USD",
      "_2g_bands": "GSM 850 / 900 / 1800 / 1900 - SIM 1 & SIM 2",
      "_3_5mm_jack_": "Yes",
      "_3g_bands": "HSDPA 850 / 1700(AWS) / 1900 / 2100 "
    },
    {
      "id": "1",
      "DeviceName": "Coolpad Cool 2",
      "Brand": "Coolpad",
      "technology": "GSM / CDMA / HSPA / LTE",
      "gprs": "Yes",
      "edge": "Yes",
      "announced": "2018, April",
      "status": "Coming soon. Exp. release 2018, May",
      "dimensions": "154.7 x 73.3 x 9 mm (6.09 x 2.89 x 0.35 in)",
      "weight": "160 g (5.64 oz)",
      "sim": "Hybrid Dual SIM (Nano-SIM, dual stand-by)",
      "type": "IPS LCD capacitive touchscreen, 16M colors",
      "size": "5.7 inches, 83.8 cm2 (~73.9% screen-to-body ratio)",
      "resolution": "720 x 1440 pixels, 18:9 ratio (~282 ppi density)",
      "card_slot": "microSD, up to 128 GB (uses SIM 2 slot)",
      "alert_types": "Vibration; MP3, WAV ringtones",
      "loudspeaker_": "Yes",
      "sound_c": "- Active noise cancellation with dedicated mic",
      "wlan": "Wi-Fi 802.11 b/g/n, Wi-Fi Direct, hotspot",
      "bluetooth": "4.0, A2DP, LE",
      "gps": "Yes, with A-GPS, GLONASS, BDS",
      "infrared_port": "Yes",
      "radio": "No",
      "usb": "microUSB 2.0",
      "messaging": "SMS(threaded view), MMS, Email, Push Email",
      "browser": "HTML5",
      "features_c": "- MP4/H.264 player\r\n  - MP3/WAV/eAAC+/FLAC player\r\n  - Document viewer\r\n  - Photo/video editor",
      "battery_c": "Non-removable Li-Ion 3200 mAh battery",
      "colors": "Gold, Blue",
      "sensors": "Fingerprint (rear-mounted), accelerometer, proximity",
      "cpu": "Octa-core (4x1.5 GHz Cortex-A53 & 4x1.0 GHz Cortex-A53)",
      "internal": "64 GB, 4 GB RAM",
      "os": "Android 7.0 (Nougat)",
      "body_c": "- Splash resistant",
      "primary_": "Dual: 13 MP + VGA, autofocus, LED flash",
      "video": "1080p@30fps",
      "secondary": "8 MP",
      "speed": "HSPA, LTE",
      "network_c": "CDMA 800 & TD-SCDMA",
      "chipset": "Mediatek MT6750",
      "features": "Geo-tagging, touch focus, face detection, panorama, HDR",
      "gpu": "Mali-T860MP2",
      "multitouch": "Yes",
      "build": "Front glass, aluminum body",
      "_2g_bands": "GSM 850 / 900 / 1800 / 1900 - SIM 1 & SIM 2",
      "_3_5mm_jack_": "Yes",
      "_3g_bands": "HSDPA 850 / 900 / 1900 / 2100 ",
      "_4g_bands": "LTE band 1(2100), 3(1800), 5(850), 7(2600), 8(900), 38(2600), 39(1900), 40(2300), 41(2500)"
    },
    {
      "id": "2",
      "DeviceName": "Gionee F205",
      "Brand": "Gionee",
      "technology": "GSM / CDMA / HSPA / LTE",
      "gprs": "Yes",
      "edge": "Yes",
      "announced": "2018, January",
      "status": "Available. Released 2018, January",
      "dimensions": "148.4 x 70.7 x 8 mm (5.84 x 2.78 x 0.31 in)",
      "weight": "135.6 g (4.80 oz)",
      "sim": "Dual SIM (Nano-SIM, dual stand-by)",
      "type": "IPS LCD capacitive touchscreen, 16M colors",
      "size": "5.45 inches, 76.7 cm2 (~73.1% screen-to-body ratio)",
      "resolution": "720 x 1440 pixels, 18:9 ratio (~295 ppi density)",
      "display_c": "- Amigo 5.0",
      "card_slot": "microSD, up to 256 GB",
      "alert_types": "Vibration; MP3, WAV ringtones",
      "loudspeaker_": "Yes",
      "wlan": "Wi-Fi 802.11 b/g/n, hotspot",
      "bluetooth": "4.2, A2DP, LE",
      "gps": "Yes, with A-GPS",
      "radio": "FM radio",
      "usb": "microUSB 2.0",
      "messaging": "SMS(threaded view), MMS, Email, Push Email, IM",
      "browser": "HTML5",
      "features_c": "- MP4/H.264 player\r\n  - MP3/WAV/eAAC+ player\r\n  - Photo/video editor\r\n  - Document viewer",
      "battery_c": "Non-removable Li-Ion 2670 mAh battery",
      "colors": "Gold, Red, Blue",
      "sensors": "Accelerometer, proximity, compass",
      "cpu": "Quad-core 1.3 GHz Cortex-A53",
      "internal": "16 GB, 2 GB RAM",
      "os": "Android 7.1 (Nougat)",
      "primary_": "8 MP, autofocus, LED flash",
      "video": "720p@30fps",
      "secondary": "5 MP",
      "speed": "HSPA, LTE",
      "network_c": "CDMA 800 & TD-SCDMA",
      "chipset": "Mediatek MT6739",
      "features": "Geo-tagging, touch focus, face detection, HDR, panorama",
      "gpu": "PowerVR GE8100",
      "multitouch": "Yes",
      "build": "Front glass, aluminum body",
      "price": "About 130 EUR",
      "_2g_bands": "GSM 850 / 900 / 1800 / 1900 - SIM 1 & SIM 2",
      "_3_5mm_jack_": "Yes",
      "_3g_bands": "HSDPA 850 / 900 / 1900 / 2100 ",
      "_4g_bands": "LTE band 1(2100), 3(1800), 5(850), 7(2600), 8(900), 38(2600), 39(1900), 40(2300), 41(2500)"
    },
    {
      "id": "3",
      "DeviceName": "Micromax Canvas 1 2018",
      "Brand": "Micromax",
      "technology": "GSM / HSPA / LTE",
      "gprs": "Yes",
      "edge": "Yes",
      "announced": "2018, April",
      "status": "Available. Released 2018, April",
      "dimensions": "-",
      "weight": "-",
      "sim": "Dual SIM (Micro-SIM, dual stand-by)",
      "type": "IPS LCD capacitive touchscreen, 16M colors",
      "size": "5.7 inches, 83.8 cm2",
      "resolution": "720 x 1440 pixels, 18:9 ratio (~282 ppi density)",
      "card_slot": "microSD, up to 64 GB (dedicated slot)",
      "alert_types": "Vibration; MP3, WAV ringtones",
      "loudspeaker_": "Yes",
      "wlan": "Wi-Fi 802.11 b/g/n, hotspot",
      "bluetooth": "4.0, A2DP",
      "gps": "Yes, with A-GPS",
      "radio": "FM radio",
      "usb": "microUSB 2.0, USB On-The-Go",
      "messaging": "SMS(threaded view), MMS, Email, Push Email, IM",
      "browser": "HTML5",
      "features_c": "- MP3/AAC/WAV player\r\n  - MP4/H.264 player\r\n  - Document viewer\r\n  - Photo/video editor",
      "battery_c": "Li-Ion 3000 mAh battery",
      "colors": "Matte Black, Chrome Black",
      "sensors": "Accelerometer, proximity",
      "cpu": "Quad-core 1.3 GHz Cortex-A53",
      "internal": "16 GB, 2 GB RAM",
      "os": "Android 7.0 (Nougat)",
      "primary_": "8 MP, autofocus, dual-LED dual-tone flash",
      "video": "1080p",
      "secondary": "5 MP, LED flash",
      "speed": "HSPA, LTE Cat4 150/50 Mbps",
      "chipset": "Mediatek MT6737",
      "features": "Geo-tagging, touch focus, panorama",
      "gpu": "Mali-T720",
      "multitouch": "Yes",
      "price": "About 7000 INR",
      "_2g_bands": "GSM 850 / 900 / 1800 / 1900 - SIM 1 & SIM 2",
      "_3_5mm_jack_": "Yes",
      "_3g_bands": "HSDPA 850 / 900 / 1900 / 2100 ",
      "_4g_bands": "LTE band 3(1800), 5(850), 40(2300)"
    },
    {
      "id": "4",
      "DeviceName": "vivo Y83",
      "Brand": "vivo",
      "technology": "GSM / HSPA / LTE",
      "gprs": "Yes",
      "edge": "Yes",
      "announced": "Not announced yet",
      "status": "Rumored",
      "dimensions": "-",
      "weight": "-",
      "sim": "Dual SIM (Nano-SIM, dual stand-by)",
      "type": "IPS LCD capacitive touchscreen, 16M colors",
      "size": "6.3 inches, 99.1 cm2",
      "resolution": "1080 x 2280 pixels, 19:9 ratio (~400 ppi density)",
      "display_c": "- Funtouch OS 4.0",
      "card_slot": "microSD, up to 256 GB",
      "alert_types": "Vibration; MP3, WAV ringtones",
      "loudspeaker_": "Yes",
      "sound_c": "- Active noise cancellation with dedicated mic",
      "wlan": "Wi-Fi 802.11 b/g/n, Wi-Fi Direct, hotspot",
      "bluetooth": "4.2, A2DP, LE",
      "gps": "Yes, with A-GPS, GLONASS, BDS",
      "radio": "FM radio",
      "usb": "microUSB 2.0",
      "messaging": "SMS(threaded view), MMS, Email, Push Email",
      "browser": "HTML5",
      "features_c": "- MP4/H.264 player\r\n  - MP3/WAV/eAAC+/FLAC player\r\n  - Document viewer\r\n  - Photo/video editor",
      "battery_c": "Non-removable Li-Ion 3300 mAh battery",
      "colors": "Black",
      "sensors": "Fingerprint (rear-mounted), accelerometer, proximity, compass",
      "cpu": "Octa-core",
      "internal": "32 GB, 3 GB RAM",
      "os": "Android 8.1 (Oreo)",
      "primary_": "Dual: 13 MP + 2 MP, phase detection autofocus, LED flash",
      "video": "1080p@30fps",
      "secondary": "8 MP",
      "speed": "HSPA, LTE",
      "features": "Geo-tagging, touch focus, face detection, HDR, panorama",
      "multitouch": "Yes",
      "build": "Front glass, aluminum body",
      "_2g_bands": "GSM 850 / 900 / 1800 / 1900 - SIM 1 & SIM 2",
      "_3_5mm_jack_": "Yes",
      "_3g_bands": "HSDPA 850 / 900 / 1900 / 2100 ",
      "_4g_bands": " LTE"
    },
    {
      "id": "5",
      "DeviceName": "HTC U12 Life",
      "Brand": "HTC",
      "technology": "GSM / HSPA / LTE",
      "gprs": "Yes",
      "edge": "Yes",
      "announced": "Not announced yet",
      "status": "Rumored",
      "dimensions": "-",
      "weight": "-",
      "sim": "Nano-SIM",
      "type": "Super LCD capacitive touchscreen, 16M colors",
      "size": "5.7 inches, 81.1 cm2",
      "resolution": "1080 x 2280 pixels, 19:9 ratio (~443 ppi density)",
      "card_slot": "microSD, up to 256 GB",
      "alert_types": "Vibration; MP3, WAV ringtones",
      "loudspeaker_": "Yes",
      "sound_c": "- 24-bit/192kHz audio\r\n  - Active noise cancellation with dedicated mic",
      "wlan": "Wi-Fi 802.11 a/b/g/n/ac, dual-band, WiFi Direct, hotspot",
      "bluetooth": "5.0, A2DP, LE",
      "gps": "Yes, with A-GPS, GLONASS, BDS",
      "radio": "No",
      "usb": "2.0, Type-C 1.0 reversible connector",
      "messaging": "SMS(threaded view), MMS, Email, Push Email, IM",
      "browser": "HTML5",
      "features_c": "- MP4/H.264 player\r\n  - MP3/eAAC+/WAV player\r\n  - Photo/video editor\r\n  - Document viewer",
      "battery_c": "Non-removable Li-Ion 3000 mAh battery",
      "colors": "Brilliant Black, Sapphire Blue, Ice White",
      "sensors": "Fingerprint (front-mounted), accelerometer, gyro, proximity, compass",
      "cpu": "Octa-core (4x2.2 GHz Kryo 260 & 4x1.8 GHz Kryo 260)",
      "internal": "64 GB, 6 GB RAM or 32 GB, 4 GB RAM",
      "os": "Android 8.0 (Oreo); Android One",
      "body_c": "- IP67 certified - dust/water resistant (up to 1m for 30 mins)",
      "primary_": "Dual 13 MP, phase detection autofocus, LED flash",
      "video": "2160p@30fps",
      "secondary": "16 MP, f/2.0, 1080p, HDR, panorama",
      "speed": "HSPA, LTE",
      "chipset": "Qualcomm SDM660 Snapdragon 660",
      "features": "Geo-tagging, touch focus, face detection, HDR, panorama",
      "protection": "Corning Gorilla Glass 3",
      "gpu": "Adreno 512",
      "multitouch": "Yes",
      "nfc": "Yes",
      "build": "Plastic body",
      "_2g_bands": "GSM 850 / 900 / 1800 / 1900 ",
      "_3_5mm_jack_": "No",
      "_3g_bands": "HSDPA 850 / 900 / 1700(AWS) / 1900 / 2100 ",
      "_4g_bands": " LTE"
    },
    {
      "id": "6",
      "DeviceName": "Nokia X6",
      "Brand": "Nokia",
      "technology": "GSM / HSPA / LTE",
      "gprs": "Yes",
      "edge": "Yes",
      "announced": "Not announced yet",
      "status": "Rumored",
      "dimensions": "-",
      "weight": "-",
      "sim": "Hybrid Dual SIM (Nano-SIM, dual stand-by)",
      "type": "IPS LCD capacitive touchscreen, 16M colors",
      "size": "5.8 inches, 84.0 cm2",
      "resolution": "1080 x 2280 pixels, 19:9 ratio (~435 ppi density)",
      "card_slot": "microSD, up to 256 GB (uses SIM 2 slot)",
      "alert_types": "Vibration; MP3, WAV ringtones",
      "loudspeaker_": "Yes",
      "sound_c": "- Active noise cancellation with dedicated mic",
      "wlan": "Wi-Fi 802.11 a/b/g/n, Wi-Fi Direct, hotspot",
      "bluetooth": "4.2, A2DP, LE",
      "gps": "Yes, with A-GPS, GLONASS",
      "radio": "FM radio",
      "usb": "Yes",
      "messaging": "SMS(threaded view), MMS, Email, Push Email, IM",
      "browser": "HTML5",
      "features_c": "- MP4/H.264 player\r\n  - MP3/WAV/eAAC+/FLAC player\r\n  - Photo/video editor\r\n  - Document viewer",
      "battery_c": "Non-removable Li-Ion 3500 mAh battery",
      "colors": "Black, White",
      "sensors": "Fingerprint (rear-mounted), accelerometer, gyro, proximity, compass",
      "cpu": "Octa-core 1.8 GHz Kryo 260\r\nOcta-core (4x2.0 GHz Cortex-A73 & 4x2.0 GHz Cortex-A53)",
      "internal": "128 GB, 6 GB RAM or 64 GB, 4 GB RAM",
      "os": "Android 8.1 (Oreo)",
      "primary_": "Dual 12 MP, phase detection autofocus, LED flash",
      "video": "1080p@30fps",
      "secondary": "5 MP",
      "speed": "HSPA, LTE",
      "chipset": "Qualcomm SDM636 Snapdragon 636 - 6 GB RAM model\r\nMediatek Helio P60 - 4 GB RAM model",
      "features": "Geo-tagging, touch focus, face detection, panorama, HDR",
      "gpu": "Adreno 509\r\nMali-G72 MP3",
      "multitouch": "Yes",
      "_2g_bands": "GSM 850 / 900 / 1800 / 1900 - SIM 1 & SIM 2",
      "_3_5mm_jack_": "Yes",
      "_3g_bands": "HSDPA 850 / 900 / 1900 / 2100 ",
      "_4g_bands": " LTE"
    },
    {
      "id": "7",
      "DeviceName": "Samsung Galaxy S9 Active",
      "Brand": "Samsung",
      "technology": "GSM / CDMA / HSPA / EVDO / LTE",
      "gprs": "Yes",
      "edge": "Yes",
      "announced": "Not announced yet",
      "status": "Rumored",
      "dimensions": "-",
      "weight": "-",
      "sim": "Nano-SIM",
      "type": "Super AMOLED capacitive touchscreen, 16M colors",
      "size": "5.8 inches, 85.4 cm2",
      "resolution": "1440 x 2960 pixels, 18.5:9 ratio (~568 ppi density)",
      "display_c": "- HDR10 compliant\r\n  - 3D Touch (home button only)\r\n  - Always-on display",
      "card_slot": "microSD, up to 400 GB (dedicated slot)",
      "alert_types": "Vibration; MP3, WAV ringtones",
      "loudspeaker_": "Yes, with stereo speakers",
      "sound_c": "- 32-bit/384kHz audio\r\n  - Active noise cancellation with dedicated mic",
      "wlan": "Wi-Fi 802.11 a/b/g/n/ac, dual-band, Wi-Fi Direct, hotspot",
      "bluetooth": "5.1, A2DP, LE, aptX",
      "gps": "Yes, with A-GPS, GLONASS, BDS, GALILEO",
      "radio": "FM radio",
      "usb": "3.1, Type-C 1.0 reversible connector",
      "messaging": "SMS(threaded view), MMS, Email, Push Email, IM",
      "browser": "HTML5",
      "features_c": "- Samsung DeX (desktop experience support)\r\n  - Fast battery charging (Quick Charge 2.0)\r\n  - PMA wireless charging (market dependent)\r\n  - ANT+ support\r\n  - Bixby natural language commands and dictation\r\n  - MP4/DivX/XviD/H.265 player\r\n  - MP3/WAV/eAAC+/FLAC player\r\n  - Photo/video editor\r\n  - Document editor",
      "battery_c": "Non-removable Li-Ion 4000 mAh battery",
      "colors": "Midnight Black, Coral Blue, Titanium Gray, Lilac Purple",
      "sensors": "Iris scanner, fingerprint (rear-mounted), accelerometer, gyro, proximity, compass, barometer, heart rate, SpO2",
      "cpu": "Octa-core (4x2.8 GHz Kryo 385 Gold & 4x1.7 GHz Kryo 385 Silver)",
      "internal": "64 GB, 4 GB RAM",
      "os": "Android 8.0 (Oreo)",
      "body_c": "- Samsung Pay (Visa, MasterCard certified)\r\n  - IP68 certified - dust/water proof (up to 1.5m for 30 mins)\r\n  - MIL-STD-810G compliant\r\n  ",
      "primary_": "12 MP (f/1.5-2.4, 26mm, 1/2.5\", 1.4Âµm, Dual Pixel PDAF), phase detection autofocus, OIS, LED flash",
      "video": "2160p@60fps, 1080p@240fps, 720p@960fps, HDR, dual-video rec.",
      "secondary": "8 MP (f/1.7, 25mm, 1/3.6\", 1.22Âµm), autofocus, 1440p@30fps, dual video call, Auto HDR",
      "speed": "HSPA 42.2/5.76 Mbps, LTE-A (6CA) Cat18 1200/200 Mbps",
      "network_c": "CDMA2000 1xEV-DO ",
      "chipset": "Qualcomm SDM845 Snapdragon 845",
      "features": "Geo-tagging, simultaneous 4K video and 9MP image recording, touch focus, face/smile detection, Auto HDR, panorama",
      "protection": "Corning Gorilla Glass 5",
      "gpu": "Adreno 630",
      "multitouch": "Yes",
      "nfc": "Yes",
      "build": "Front/back glass (Gorilla Glass 5), aluminum frame",
      "_2g_bands": "GSM 850 / 900 / 1800 / 1900 ",
      "_3_5mm_jack_": "Yes",
      "_3g_bands": "HSDPA 850 / 900 / 1700(AWS) / 1900 / 2100 ",
      "_4g_bands": " LTE"
    },
    {
      "id": "8",
      "DeviceName": "Panasonic Eluga I7",
      "Brand": "Panasonic",
      "technology": "GSM / HSPA / LTE",
      "gprs": "Yes",
      "edge": "Yes",
      "announced": "2018, April",
      "status": "Available. Released 2018, April",
      "dimensions": "148.8 x 70.9 x 9.3 mm (5.86 x 2.79 x 0.37 in)",
      "weight": "168 g (5.93 oz)",
      "sim": "Dual SIM (Nano-SIM, dual stand-by)",
      "type": "IPS LCD capacitive touchscreen, 16M colors",
      "size": "5.45 inches, 76.7 cm2 (~72.7% screen-to-body ratio)",
      "resolution": "720 x 1440 pixels, 18:9 ratio (~295 ppi density)",
      "card_slot": "microSD, up to 64 GB (dedicated slot)",
      "alert_types": "Vibration; MP3, WAV ringtones",
      "loudspeaker_": "Yes",
      "wlan": "Wi-Fi 802.11 b/g/n, Wi-Fi Direct, hotspot",
      "bluetooth": "4.1, A2DP, LE",
      "gps": "Yes, with A-GPS",
      "radio": "FM radio with RDS",
      "usb": "microUSB 2.0, USB On-The-Go",
      "messaging": "SMS(threaded view), MMS, Email, Push Email, IM",
      "browser": "HTML5",
      "features_c": "- MP4/H.264 player\r\n  - MP3/WAV/eAAC+ player\r\n  - Photo/video editor\r\n  - Document viewer",
      "battery_c": "Non-removable Li-Ion 4000 mAh battery",
      "colors": "Black, Gold, Blue",
      "sensors": "Fingerprint (rear-mounted), accelerometer, proximity, compass",
      "cpu": "Quad-core 1.25 GHz Cortex-A53",
      "internal": "16 GB, 2 GB RAM",
      "os": "Android 7.0 (Nougat)",
      "primary_": "8 MP (f/2.0, 1.12 Âµm), autofocus, LED flash",
      "video": "1080p@30fps",
      "secondary": "8 MP (f/2.0, 1.12 Âµm), LED flash, 480p",
      "speed": "HSPA 42.2/11.5 Mbps, LTE Cat4 150/50 Mbps",
      "chipset": "Mediatek MT6737H",
      "features": "Geo-tagging, touch focus, face detection, HDR, panorama",
      "gpu": "Mali-T720MP2",
      "multitouch": "Yes",
      "build": "Front glass, plastic body",
      "price": "About 6500 INR",
      "_2g_bands": "GSM 850 / 900 / 1800 / 1900 - SIM 1 & SIM 2",
      "_3_5mm_jack_": "Yes",
      "_3g_bands": "HSDPA 900 / 2100 ",
      "_4g_bands": "LTE band 1(2100), 3(1800), 5(850), 8(900), 40(2300), 41(2500)"
    },
    {
      "id": "9",
      "DeviceName": "Motorola Moto E5 Play",
      "Brand": "Motorola",
      "technology": "GSM / CDMA / HSPA / EVDO / LTE",
      "gprs": "Yes",
      "edge": "Yes",
      "announced": "2018, April",
      "status": "Coming soon",
      "dimensions": "151 x 74 x 9 mm (5.94 x 2.91 x 0.35 in)",
      "weight": "150 g (5.29 oz)",
      "sim": "Nano-SIM",
      "type": "IPS LCD capacitive touchscreen, 16M colors",
      "size": "5.2 inches, 74.5 cm2 (~66.7% screen-to-body ratio)",
      "resolution": "720 x 1280 pixels, 16:9 ratio (~282 ppi density)",
      "card_slot": "microSD, up to 256 GB",
      "alert_types": "Vibration; MP3, WAV ringtones",
      "loudspeaker_": "Yes",
      "sound_c": "- Active noise cancellation with dedicated mic",
      "wlan": "Wi-Fi 802.11 a/b/g/n, dual-band, WiFi Direct, hotspot",
      "bluetooth": "4.2, A2DP, LE",
      "gps": "Yes, with A-GPS, GLONASS",
      "radio": "FM radio",
      "usb": "microUSB 2.0",
      "messaging": "SMS(threaded view), MMS, Email, Push Email, IM",
      "browser": "HTML5",
      "features_c": "- Fast battery charging 5V/2A\r\n  - MP3/eAAC+/WAV/Flac player\r\n  - DivX/WMV/MP4/H.264 player\r\n  - Photo/video editor\r\n  - Document viewer",
      "battery_c": "Removable Li-Ion 2800 mAh battery",
      "colors": "Black, Dark lake, Flash gray",
      "sensors": "Fingerprint (rear-mounted), accelerometer, proximity, compass",
      "cpu": "Quad-core 1.4 GHz Cortex-A53",
      "internal": "16 GB, 2 GB RAM",
      "os": "Android 8.0 (Oreo)",
      "body_c": "- Splash resistant",
      "primary_": "8 MP (f/2.0, 1.12 Âµm), autofocus, LED flash",
      "video": "1080p@30fps",
      "secondary": "5 MP, LED flash",
      "speed": "HSPA 42.2/5.76 Mbps, LTE-A (2CA) Cat6 300/50 Mbps",
      "network_c": "CDMA2000 1xEV-DO ",
      "chipset": "Qualcomm MSM8917 Snapdragon 425/ Qualcomm MSM8920 Snapdragon 427",
      "features": "Geo-tagging, touch focus, face detection, panorama, HDR",
      "gpu": "Adreno 308",
      "multitouch": "Yes",
      "_2g_bands": "GSM 850 / 900 / 1800 / 1900 ",
      "_3_5mm_jack_": "Yes",
      "_3g_bands": "HSDPA 850 / 900 / 1700(AWS) / 1900 / 2100 ",
      "_4g_bands": "LTE band 1(2100), 2(1900), 3(1800), 4(1700/2100), 5(850), 7(2600), 8(900), 12(700), 13(700), 14(700), 17(700), 25(1900), 26(850), 29(700), 30(2300), 38(2600), 41(2500), 66(1700/2100)"
    }
  ]
}
